<svg width="17" height="18" viewBox="0 0 17 18" fill="none" xmlns="http://www.w3.org/2000/svg">
<path d="M11.2105 17.2095C10.611 17.4057 9.98969 17.5278 9.3605 17.5732C8.73672 17.6161 8.11007 17.586 7.49328 17.4836C6.87867 17.3815 6.27908 17.2036 5.70821 16.9541C5.42488 16.831 5.14904 16.6913 4.88216 16.5358L4.68572 16.4141L4.58713 16.3536L4.49228 16.2886L4.30182 16.1579C4.23908 16.1131 4.17859 16.0653 4.11734 16.0197C3.87359 15.8343 3.64091 15.6348 3.4205 15.4222C3.31444 15.3117 3.20166 15.2078 3.10232 15.0913L2.95294 14.921L2.80805 14.744C2.42511 14.2712 2.10154 13.7532 1.84456 13.2017C1.7766 13.0665 1.72357 12.9246 1.66456 12.7857C1.60556 12.6468 1.55925 12.5026 1.50996 12.3607C1.41799 12.0741 1.34317 11.7823 1.28589 11.4868C1.05391 10.311 1.109 9.09659 1.44647 7.9466C1.52961 7.66338 1.62937 7.3853 1.74523 7.11382C1.80871 6.98012 1.86398 6.84419 1.93419 6.71498C1.96855 6.64925 2.00066 6.58353 2.03577 6.51855L2.14556 6.32734C2.18066 6.26311 2.22025 6.20112 2.25983 6.13987C2.29942 6.07863 2.33452 6.01514 2.37784 5.95465C2.46373 5.83514 2.5429 5.71191 2.63477 5.59763C2.81152 5.36507 3.00181 5.14311 3.20464 4.9329C3.60962 4.51544 4.06324 4.14808 4.55577 3.83871C5.36696 3.32831 6.2733 2.98782 7.21991 2.83788V3.88353L9.22157 1.95581L7.21991 0.0273438V1.04834C6.64376 1.15092 6.0793 1.3108 5.53494 1.5256C4.2193 2.04773 3.04879 2.87906 2.1224 3.94925C1.89464 4.21423 1.68289 4.49257 1.4883 4.78278C1.38747 4.92543 1.30083 5.07705 1.20896 5.22419C1.16489 5.29888 1.12382 5.37357 1.08124 5.45199C1.03867 5.53041 0.996844 5.60137 0.958753 5.68278L0.842985 5.91581C0.806388 5.99498 0.772031 6.0749 0.736927 6.15407C0.662238 6.31166 0.606222 6.47597 0.541989 6.63656C0.424461 6.96237 0.3262 7.29481 0.247715 7.63216C-0.143098 9.31325 -0.0165672 11.0732 0.610703 12.6811C0.675682 12.8387 0.740662 12.9956 0.812363 13.1494C0.884064 13.3033 0.956512 13.4564 1.04091 13.6035C1.36184 14.1984 1.75411 14.752 2.20904 15.2519L2.38008 15.4371L2.55933 15.6149C2.67585 15.7351 2.80581 15.8427 2.9283 15.9562C3.18191 16.1747 3.44827 16.378 3.72597 16.5649C3.79543 16.6112 3.86415 16.659 3.93435 16.7039L4.14946 16.8331L4.25626 16.8973L4.36606 16.9571L4.58639 17.0751C4.88273 17.2273 5.18801 17.3615 5.50058 17.4769C6.12217 17.7053 6.76968 17.8558 7.4283 17.925C8.08233 17.9956 8.74241 17.9889 9.39485 17.9049C11.3436 17.6485 13.1319 16.6901 14.4244 15.2093C13.5297 16.1251 12.4272 16.8112 11.2105 17.2095Z" fill="#76A3E4"/>
<path fill-rule="evenodd" clip-rule="evenodd" d="M11.1279 2.69283C11.3632 2.77648 11.5977 2.87283 11.8218 2.97888L12.14 2.30295C11.8927 2.18644 11.6358 2.08038 11.3781 1.98926L11.1279 2.69283ZM13.4925 4.05515C13.239 3.84039 12.9718 3.6423 12.6926 3.46212L13.0967 2.83398C13.4033 3.03207 13.697 3.24961 13.9758 3.48527L13.4925 4.05515ZM14.2103 4.74753C14.4341 4.99332 14.6414 5.25355 14.831 5.52653L15.4442 5.10006C15.2359 4.80036 15.0081 4.51468 14.7623 4.24487L14.2103 4.74753ZM15.7391 7.29142C15.6272 6.97863 15.495 6.6735 15.3433 6.37798L16.0072 6.03665C16.1738 6.36129 16.3193 6.69634 16.4427 7.03972L15.7391 7.29142ZM16.0088 8.2482C16.0802 8.57294 16.1301 8.90204 16.1582 9.23335L16.8998 9.1721C16.8699 8.8085 16.8162 8.44723 16.7392 8.09061L16.0088 8.2482ZM16.7967 11.3523L16.0618 11.2193C16.1209 10.893 16.1586 10.5632 16.1745 10.2319L16.9214 10.2678C16.903 10.6316 16.8613 10.9938 16.7967 11.3523ZM16.1283 13.4323L15.4561 13.1127C15.5984 12.8124 15.7206 12.503 15.822 12.1865L16.5331 12.4151C16.4211 12.7628 16.2858 13.1027 16.1283 13.4323Z" fill="#76A3E4"/>
<path d="M5.65119 7.71875C6.5721 7.71875 7.16961 8.21543 7.16961 8.92423C7.16961 9.45526 6.76554 9.85634 6.4399 10.1685L5.46895 11.0648V11.0842H7.2189V11.8752H4.13127V11.1873L5.71243 9.73161C6.05002 9.40896 6.17326 9.20879 6.17326 8.95933C6.17326 8.70987 5.95442 8.49551 5.61683 8.49551C5.27924 8.49551 5.01932 8.73452 5.01932 9.06912V9.08854H4.07227V9.06912C4.07227 8.26697 4.70488 7.71875 5.65119 7.71875Z" fill="#76A3E4"/>
<path fill-rule="evenodd" clip-rule="evenodd" d="M7.60938 11.2164H9.61253V11.8752H10.5872V11.2164H11.0929V10.4128H10.5872V7.82031H9.15469C8.38763 8.96604 7.96639 9.66289 7.60938 10.3538V11.2164ZM9.64021 10.4493H8.48328V10.4187C8.81489 9.74503 9.12336 9.25582 9.62079 8.51416H9.64021V10.4493Z" fill="#76A3E4"/>
<path d="M11.7637 7.81738H12.1857V8.4978H12.1946C12.2562 8.32409 12.4252 8.21203 12.6091 8.22294C12.9079 8.22294 13.0692 8.41041 13.0692 8.72336V9.57406H12.6383V8.81672C12.6383 8.66734 12.5636 8.57473 12.4217 8.57473C12.2798 8.57473 12.1976 8.67854 12.1976 8.82643V9.57332H11.7637V7.81738Z" fill="#76A3E4"/>
</svg>
