<svg width="11" height="22" viewBox="0 0 11 22" fill="none" xmlns="http://www.w3.org/2000/svg">
<path fill-rule="evenodd" clip-rule="evenodd" d="M11 3.652L9.00626 3.65337C7.44277 3.65337 7.13961 4.42475 7.13961 5.55638V8.05338H10.8689L10.3831 11.9653H7.13961V22H3.25141V11.9653H0V8.05338H3.25141V5.17C3.25141 1.82188 5.22 0 8.09412 0C9.47094 0 10.6545 0.105875 11 0.154V3.652Z" fill="#888888"/>
</svg>
