<svg width="7" height="1" viewBox="0 0 7 1" fill="none" xmlns="http://www.w3.org/2000/svg">
<rect x="0.248901" y="0.25" width="6.5" height="0.5" fill="#D8D8D8" stroke="#444444" stroke-width="0.5"/>
</svg>
