<svg width="7" height="7" viewBox="0 0 7 7" fill="none" xmlns="http://www.w3.org/2000/svg">
<rect x="0.248901" y="3.25" width="6.5" height="0.5" fill="#D8D8D8" stroke="#444444" stroke-width="0.5"/>
<rect x="3.7489" y="0.25" width="6.5" height="0.5" transform="rotate(90 3.7489 0.25)" fill="#D8D8D8" stroke="#444444" stroke-width="0.5"/>
</svg>
