<svg width="64" height="64" viewBox="0 0 64 64" fill="none" xmlns="http://www.w3.org/2000/svg">
<circle cx="32" cy="32" r="30" stroke="#C36767" stroke-width="3"/>
<rect x="21.0006" y="40.799" width="28" height="3.11111" transform="rotate(-45 21.0006 40.799)" fill="#C36767"/>
<path fill-rule="evenodd" clip-rule="evenodd" d="M23.1998 21.0002L42.9988 40.7992L40.7989 42.999L20.9999 23.2L23.1998 21.0002Z" fill="#C36767"/>
</svg>
