<svg width="42" height="42" viewBox="0 0 42 42" fill="none" xmlns="http://www.w3.org/2000/svg">
<circle r="20" transform="matrix(-1 0 0 1 21 21)" fill="#333435" fill-opacity="0.9"/>
<circle r="20.5" transform="matrix(-1 0 0 1 21 21)" stroke="white" stroke-opacity="0.4"/>
<path d="M18.9487 26.0767L24.0254 21L18.9487 15.9233" stroke="white" stroke-width="2"/>
</svg>
